[
	{
		"name": "id",
		"dbType": "increments",
		"htmlType": null,
		"validations": null,
		"searchable": false,
		"fillable": false,
		"primary": true,
		"inForm": false,
		"inIndex": false,
		"inView": false
	},
	{
		"name": "name",
		"dbType": "string",
		"htmlType": "text",
		"validations": "required",
		"searchable": true,
		"fillable": true,
		"primary": false,
		"inForm": true,
		"inIndex": true,
		"inView": true
	},
	{
		"name": "email",
		"dbType": "string",
		"htmlType": "text",
		"validations": "required",
		"searchable": true,
		"fillable": true,
		"primary": false,
		"inForm": true,
		"inIndex": true,
		"inView": true
	},
	{
		"name": "password",
		"dbType": "string",
		"htmlType": "text",
		"validations": "required",
		"searchable": true,
		"fillable": true,
		"primary": false,
		"inForm": true,
		"inIndex": false,
		"inView": false
	},
	{
		"name": "is_super",
		"dbType": "boolean",
		"htmlType": "checkbox",
		"validations": "",
		"searchable": true,
		"fillable": true,
		"primary": false,
		"inForm": true,
		"inIndex": true,
		"inView": true
	},
	{
		"name": "created_at",
		"dbType": "timestamp",
		"htmlType": null,
		"validations": null,
		"searchable": false,
		"fillable": false,
		"primary": false,
		"inForm": false,
		"inIndex": false,
		"inView": true
	},
	{
		"name": "updated_at",
		"dbType": "timestamp",
		"htmlType": null,
		"validations": null,
		"searchable": false,
		"fillable": false,
		"primary": false,
		"inForm": false,
		"inIndex": false,
		"inView": true
	}
]