[
	{
		"name": "id",
		"dbType": "increments",
		"htmlType": null,
		"validations": null,
		"searchable": false,
		"fillable": false,
		"primary": true,
		"inForm": false,
		"inIndex": false,
		"inView": false
	},
	{
		"name": "ref_no",
		"dbType": "string",
		"htmlType": "text",
		"validations": "required",
		"searchable": true,
		"fillable": true,
		"primary": false,
		"inForm": true,
		"inIndex": true,
		"inView": true
	},
	{
		"name": "payment_method",
		"dbType": "string",
		"htmlType": "text",
		"validations": "nullable",
		"searchable": true,
		"fillable": true,
		"primary": false,
		"inForm": true,
		"inIndex": true,
		"inView": true
	},
	{
		"name": "amount",
		"dbType": "double",
		"htmlType": "number",
		"validations": "nullable",
		"searchable": true,
		"fillable": true,
		"primary": false,
		"inForm": true,
		"inIndex": true,
		"inView": true
	},
	{
		"name": "gateway_response",
		"dbType": "text",
		"htmlType": "text",
		"validations": "required",
		"searchable": true,
		"fillable": true,
		"primary": false,
		"inForm": true,
		"inIndex": true,
		"inView": true
	},
	{
		"name": "created_at",
		"dbType": "timestamp",
		"htmlType": null,
		"validations": null,
		"searchable": false,
		"fillable": false,
		"primary": false,
		"inForm": false,
		"inIndex": false,
		"inView": true
	},
	{
		"name": "updated_at",
		"dbType": "timestamp",
		"htmlType": null,
		"validations": null,
		"searchable": false,
		"fillable": false,
		"primary": false,
		"inForm": false,
		"inIndex": false,
		"inView": true
	}
]
