[
	{
		"name": "id",
		"dbType": "increments",
		"htmlType": null,
		"validations": null,
		"searchable": false,
		"fillable": false,
		"primary": true,
		"inForm": false,
		"inIndex": false,
		"inView": false
	},
	{
		"name": "icon",
		"dbType": "string",
		"htmlType": "file",
		"validations": "required",
		"searchable": true,
		"fillable": true,
		"primary": false,
		"inForm": true,
		"inIndex": true,
		"inView": true
	},
	{
		"name": "bg_image",
		"dbType": "string",
		"htmlType": "file",
		"validations": "required",
		"searchable": false,
		"fillable": true,
		"primary": false,
		"inForm": true,
		"inIndex": true,
		"inView": true
	},
	{
		"name": "home_view",
		"dbType": "integer",
		"htmlType": "select",
		"validations": "required",
		"searchable": false,
		"fillable": true,
		"primary": false,
		"inForm": true,
		"inIndex": false,
		"inView": true
	},
	{
		"name": "name",
		"dbType": "string",
		"htmlType": "text",
		"validations": "required",
		"searchable": true,
		"fillable": true,
		"primary": false,
		"inForm": true,
		"inIndex": true,
		"inView": true
	},
	{
		"name": "description",
		"dbType": "string",
		"htmlType": "text",
		"validations": "nullable",
		"searchable": true,
		"fillable": true,
		"primary": false,
		"inForm": true,
		"inIndex": true,
		"inView": true
	},
	{
		"name": "type",
		"dbType": "integer",
		"htmlType": "text",
		"validations": "required",
		"searchable": true,
		"fillable": true,
		"primary": false,
		"inForm": true,
		"inIndex": true,
		"inView": true
	},
	{
		"name": "discount",
		"dbType": "double",
		"htmlType": "number",
		"validations": "nullable",
		"searchable": true,
		"fillable": true,
		"primary": false,
		"inForm": true,
		"inIndex": true,
		"inView": true
	},
	{
		"name": "commission",
		"dbType": "double",
		"htmlType": "number",
		"validations": "nullable",
		"searchable": true,
		"fillable": true,
		"primary": false,
		"inForm": true,
		"inIndex": true,
		"inView": true
	},
	{
		"name": "vehicles",
		"dbType": "string",
		"htmlType": "select",
		"validations": "required",
		"searchable": true,
		"fillable": true,
		"primary": false,
		"inForm": true,
		"inIndex": true,
		"inView": true
	},
	{
		"name": "min_price",
		"dbType": "string",
		"htmlType": "text",
		"validations": "nullable",
		"searchable": true,
		"fillable": true,
		"primary": false,
		"inForm": true,
		"inIndex": true,
		"inView": true
	},
	{
		"name": "driver_radius",
		"dbType": "string",
		"htmlType": "text",
		"validations": "required",
		"searchable": false,
		"fillable": true,
		"primary": false,
		"inForm": true,
		"inIndex": true,
		"inView": true
	},
	{
		"name": "base_distance",
		"dbType": "double",
		"htmlType": "number",
		"validations": "nullable",
		"searchable": false,
		"fillable": true,
		"primary": false,
		"inForm": true,
		"inIndex": false,
		"inView": true
	},
	{
		"name": "base_price",
		"dbType": "double",
		"htmlType": "number",
		"validations": "nullable",
		"searchable": false,
		"fillable": true,
		"primary": false,
		"inForm": true,
		"inIndex": false,
		"inView": true
	},
	{
		"name": "base_km",
		"dbType": "double",
		"htmlType": "number",
		"validations": "nullable",
		"searchable": false,
		"fillable": true,
		"primary": false,
		"inForm": true,
		"inIndex": false,
		"inView": true
	},
	{
		"name": "price_km",
		"dbType": "double",
		"htmlType": "number",
		"validations": "nullable",
		"searchable": false,
		"fillable": true,
		"primary": false,
		"inForm": true,
		"inIndex": false,
		"inView": true
	},
	{
		"name": "max_order_distance",
		"dbType": "double",
		"htmlType": "number",
		"validations": "required",
		"searchable": false,
		"fillable": true,
		"primary": false,
		"inForm": true,
		"inIndex": false,
		"inView": true
	},
	{
		"name": "payment_methods",
		"dbType": "string",
		"htmlType": "select",
		"validations": "required",
		"searchable": false,
		"fillable": true,
		"primary": false,
		"inForm": true,
		"inIndex": false,
		"inView": true
	},
	{
		"name": "active",
		"dbType": "boolean",
		"htmlType": "checkbox",
		"validations": "nullable",
		"searchable": true,
		"fillable": true,
		"primary": false,
		"inForm": true,
		"inIndex": true,
		"inView": true
	}
]