[
	{
		"name": "id",
		"dbType": "increments",
		"htmlType": null,
		"validations": null,
		"searchable": false,
		"fillable": false,
		"primary": true,
		"inForm": false,
		"inIndex": false,
		"inView": false
	},
	{
		"name": "store_id",
		"dbType": "integer",
		"htmlType": "select",
		"validations": "required",
		"searchable": true,
		"fillable": true,
		"primary": false,
		"inForm": true,
		"inIndex": true,
		"inView": true
	},
	{
		"name": "title",
		"dbType": "string",
		"htmlType": "text",
		"validations": "nullable",
		"searchable": true,
		"fillable": true,
		"primary": false,
		"inForm": true,
		"inIndex": true,
		"inView": true
	},
	{
		"name": "description",
		"dbType": "string",
		"htmlType": "text",
		"validations": "nullable",
		"searchable": true,
		"fillable": true,
		"primary": false,
		"inForm": true,
		"inIndex": true,
		"inView": true
	},
	{
		"name": "rating",
		"dbType": "double",
		"htmlType": "number",
		"validations": "required",
		"searchable": true,
		"fillable": true,
		"primary": false,
		"inForm": true,
		"inIndex": true,
		"inView": true
	},
	{
		"name": "created_at",
		"dbType": "timestamp",
		"htmlType": null,
		"validations": null,
		"searchable": false,
		"fillable": false,
		"primary": false,
		"inForm": false,
		"inIndex": false,
		"inView": true
	},
	{
		"name": "updated_at",
		"dbType": "timestamp",
		"htmlType": null,
		"validations": null,
		"searchable": false,
		"fillable": false,
		"primary": false,
		"inForm": false,
		"inIndex": false,
		"inView": true
	}
]