[
	{
		"name": "id",
		"dbType": "string",
		"htmlType": "text",
		"validations": "required",
		"searchable": true,
		"fillable": true,
		"primary": false,
		"inForm": true,
		"inIndex": true,
		"inView": true
	},
	{
		"name": "title",
		"dbType": "string",
		"htmlType": "text",
		"validations": "required",
		"searchable": true,
		"fillable": true,
		"primary": false,
		"inForm": true,
		"inIndex": true,
		"inView": true
	},
	{
		"name": "polygon",
		"dbType": "string",
		"htmlType": "text",
		"validations": "required",
		"searchable": true,
		"fillable": true,
		"primary": false,
		"inForm": true,
		"inIndex": true,
		"inView": true
	},
	{
		"name": "active",
		"dbType": "boolean",
		"htmlType": "checkbox",
		"validations": "nullable",
		"searchable": true,
		"fillable": true,
		"primary": false,
		"inForm": true,
		"inIndex": true,
		"inView": false
	},
	{
		"name": "created_at",
		"dbType": "timestamp",
		"htmlType": null,
		"validations": null,
		"searchable": false,
		"fillable": false,
		"primary": false,
		"inForm": false,
		"inIndex": false,
		"inView": true
	},
	{
		"name": "updated_at",
		"dbType": "timestamp",
		"htmlType": null,
		"validations": null,
		"searchable": false,
		"fillable": false,
		"primary": false,
		"inForm": false,
		"inIndex": false,
		"inView": true
	}
]